Data Science for Public Policy
…
#Task2

crimes <- crimes %>% 
  filter(primary_type == "HOMICIDE")
filter(crimes, !is.na(longitude), !is.na(latitude))

# A tibble: 11,763 × 10
      id date       primary_type arrest x_coordinate y_coordinate community_area
   <dbl> <chr>      <chr>        <lgl>         <dbl>        <dbl>          <dbl>
 1  1023 08/22/200… HOMICIDE     TRUE        1141945      1900001             25
 2  1024 08/22/200… HOMICIDE     FALSE       1172275      1854791             71
 3  1025 08/22/200… HOMICIDE     FALSE       1137038      1900142             25
 4  1026 08/23/200… HOMICIDE     TRUE        1155001      1890353             29
 5  1027 08/25/200… HOMICIDE     TRUE        1169214      1891572             NA
 6  1028 08/25/200… HOMICIDE     TRUE        1155261      1904123             23
 7  1029 08/26/200… HOMICIDE     TRUE        1197891      1852037             46
 8  1030 08/26/200… HOMICIDE     TRUE        1176894      1832184             49
 9  1031 08/27/200… HOMICIDE     TRUE        1185836      1843385             47
10  1032 08/02/200… HOMICIDE     TRUE        1182421      1872504             39
# ℹ 11,753 more rows
# ℹ 3 more variables: latitude <chr>, longitude <chr>, location <chr>
…
Simple feature collection with 3813 features and 6 fields
Geometry type: GEOMETRY
Dimension:     XY
Bounding box:  xmin: -87.84647 ymin: 41.64482 xmax: -87.52603 ymax: 42.02253
Geodetic CRS:  WGS 84
# A tibble: 3,813 × 7
      id date                primary_type arrest x_coordinate y_coordinate
   <dbl> <dttm>              <chr>        <lgl>         <dbl>        <dbl>
 1 21332 2014-04-15 03:07:00 HOMICIDE     FALSE       1164298      1950874
 2 21554 2014-09-11 12:49:00 HOMICIDE     FALSE       1163837      1951492
 3 22179 2015-11-14 13:04:00 HOMICIDE     FALSE       1163977      1950563
 4 22813 2016-09-27 05:00:00 HOMICIDE     FALSE       1164516      1950995
 5 21924 2015-06-13 16:45:00 HOMICIDE     TRUE        1164298      1950870
 6 23260 2017-04-25 07:00:00 HOMICIDE     TRUE        1165245      1950993
 7 23534 2017-08-20 05:35:00 HOMICIDE     TRUE        1164297      1951172
 8 24830 2019-11-09 21:30:00 HOMICIDE     TRUE        1163856      1951001
 9 24831 2019-11-10 04:02:00 HOMICIDE     FALSE       1164298      1950870
10 25189 2020-06-16 04:54:00 HOMICIDE     FALSE       1163977      1950529
# ℹ 3,803 more rows
# ℹ 1 more variable: geometry <MULTIPOINT [°]>
…
